lab5_1/lab5_1.sim/sim_1/behav/xsim/tb_SCPU_TOP.vcd
$date
   Sun Nov 30 23:02:01 2025
$end
$version
  2023.1
$end
$timescale
  1ps
$end
$scope module tb_SCPU_TOP $end
$var reg 1 ! clk $end
$var reg 1 " rstn $end
$var reg 16 # sw_i [15:0] $end
$var wire 8 $ disp_an_o [7:0] $end
$var wire 8 % disp_seg_o [7:0] $end
$var wire 32 & clkdiv [31:0] $end
$var wire 1 ' Clk_CPU $end
$var wire 1 ( RegWrite $end
$var wire 3 ) rd [2:0] $end
$var wire 32 * WD [31:0] $end
$var wire 1 + Clk_5 $end
$var wire 1 , clk_half $end
$var wire 32 - immout [31:0] $end
$var wire 1 . ALUSrc $end
$var wire 2 / WDSel [1:0] $end
$var wire 3 0 rs1 [2:0] $end
$var wire 3 1 rs2 [2:0] $end
$var wire 32 2 RD1 [31:0] $end
$var wire 32 3 RD2 [31:0] $end
$var wire 5 4 ALUOp [4:0] $end
$var wire 32 5 aluout [31:0] $end
$var wire 8 6 Zero [7:0] $end
$var wire 1 7 MemWrite $end
$var wire 32 8 dm_addr [31:0] $end
$var wire 32 9 dm_din [31:0] $end
$var wire 3 : DMType [2:0] $end
$var wire 32 ; dm_out [31:0] $end
$var wire 32 < instr [31:0] $end
$var wire 5 = pc [4:0] $end
$var wire 32 > _RD1 [31:0] $end
$var wire 32 ? _RD2 [31:0] $end
$var wire 32 @ dout [31:0] $end
$scope module uut $end
$var wire 1 A clk $end
$var wire 1 B rstn $end
$var wire 16 C sw_i [15:0] $end
$var wire 8 $ disp_an_o [7:0] $end
$var wire 8 % disp_seg_o [7:0] $end
$var reg 32 D clkdiv [31:0] $end
$var wire 1 E Clk_CPU $end
$var wire 1 F RegWrite $end
$var wire 32 G WD [31:0] $end
$var reg 1 H Clk_5 $end
$var wire 1 I clk_half $end
$var wire 32 J immout [31:0] $end
$var wire 1 K ALUSrc $end
$var wire 2 L WDSel [1:0] $end
$var wire 5 M rs1 [4:0] $end
$var wire 5 N rs2 [4:0] $end
$var wire 5 O rd [4:0] $end
$var wire 32 P RD1 [31:0] $end
$var wire 32 Q RD2 [31:0] $end
$var wire 32 R A [31:0] $end
$var wire 32 S B [31:0] $end
$var wire 5 T ALUOp [4:0] $end
$var wire 32 U aluout [31:0] $end
$var wire 8 V Zero [7:0] $end
$var reg 25 W counter [24:0] $end
$var wire 1 X MemWrite $end
$var wire 32 Y dm_addr [31:0] $end
$var wire 32 Z dm_din [31:0] $end
$var wire 3 [ DMType [2:0] $end
$var wire 32 \ dm_out [31:0] $end
$var wire 6 ] EXTOp [5:0] $end
$var wire 1 ^ pause $end
$var reg 64 _ display_data [63:0] $end
$var reg 6 ` led_data_addr [5:0] $end
$var reg 64 a led_disp_data [63:0] $end
$var wire 32 b instr [31:0] $end
$var reg 6 c pc [5:0] $end
$var reg 32 d reg_data [31:0] $end
$var reg 32 e alu_disp_data [31:0] $end
$var reg 32 f dmem_data [31:0] $end
$var reg 32 g WD_tmp [31:0] $end
$var reg 5 h reg_adder [4:0] $end
$var reg 2 i alu_adder [1:0] $end
$var reg 5 j dmem_addr [4:0] $end
$scope module ctrl_c $end
$var wire 7 k Op [6:0] $end
$var wire 7 l Funct7 [31:25] $end
$var wire 3 m Funct3 [14:12] $end
$var wire 1 n Zero $end
$var wire 1 F RegWrite $end
$var wire 1 X MemWrite $end
$var wire 6 ] EXTOp [5:0] $end
$var wire 5 T ALUOp [4:0] $end
$var wire 1 K ALUSrc $end
$var wire 3 [ DMType [2:0] $end
$var wire 2 L WDSel [1:0] $end
$var wire 1 o rtype $end
$var wire 1 p i_add $end
$var wire 1 q i_sub $end
$var wire 1 r itype_l $end
$var wire 1 s i_lb $end
$var wire 1 t i_lh $end
$var wire 1 u i_lw $end
$var wire 1 v i_lbu $end
$var wire 1 w i_lhu $end
$var wire 1 x itype_r $end
$var wire 1 y i_addi $end
$var wire 1 z stype $end
$var wire 1 { i_sw $end
$var wire 1 | i_sb $end
$var wire 1 } i_sh $end
$upscope $end
$scope module ext_c $end
$var wire 5 ~ iimm_shamt [24:20] $end
$var wire 12 !! iimm [31:20] $end
$var wire 12 "! simm [11:0] $end
$var wire 12 #! bimm [11:0] $end
$var wire 20 $! uimm [31:12] $end
$var wire 20 %! jimm [19:0] $end
$var wire 6 ] EXTOp [5:0] $end
$var reg 32 &! immout [31:0] $end
$upscope $end
$scope module U_RF $end
$var wire 1 E clk $end
$var wire 1 B rst $end
$var wire 1 F RFWr $end
$var wire 16 C sw_i [15:0] $end
$var wire 5 M A1 [4:0] $end
$var wire 5 N A2 [4:0] $end
$var wire 5 O A3 [4:0] $end
$var wire 32 G WD [31:0] $end
$var reg 32 '! RD1 [31:0] $end
$var reg 32 (! RD2 [31:0] $end
$var integer 32 )! i [31:0] $end
$upscope $end
$scope module U_alu $end
$var wire 32 R A [31:0] $end
$var wire 32 S B [31:0] $end
$var wire 5 T ALUOp [4:0] $end
$var wire 32 U C [31:0] $end
$var reg 8 *! Zero [7:0] $end
$var reg 32 +! result [31:0] $end
$upscope $end
$scope module U_DM $end
$var wire 1 E clk $end
$var wire 1 B rstn $end
$var wire 1 X DMWr $end
$var wire 6 ,! addr [5:0] $end
$var wire 32 Z din [31:0] $end
$var wire 3 [ DMType [2:0] $end
$var reg 32 -! dout [31:0] $end
$upscope $end
$scope module u_seg7x16 $end
$var wire 1 A clk $end
$var wire 1 B rstn $end
$var wire 1 .! disp_mode $end
$var wire 64 /! i_data [63:0] $end
$var wire 8 $ o_sel [7:0] $end
$var wire 8 % o_seg [7:0] $end
$var reg 15 0! cnt [14:0] $end
$var wire 1 1! seg7_clk $end
$var reg 64 2! i_data_store [63:0] $end
$var reg 3 3! seg7_addr [2:0] $end
$var reg 8 4! o_sel_r [7:0] $end
$var reg 8 5! seg_data_r [7:0] $end
$var reg 8 6! o_seg_r [7:0] $end
$upscope $end
$upscope $end
$upscope $end
$enddefinitions $end
#0
$dumpvars
0!
b0 !!
0"
b1 "!
b0 #
b10000000000 #!
b11111110 $
b0 $!
b11111111 %
b0 %!
b0 &
b0 &!
0'
b0 '!
1(
b0 (!
b1 )
b100000 )!
b0 *
b1 *!
0+
b0 +!
0,
b0 ,!
b0 -
bx -!
0.
0.!
b0 /
b0xxxxxxxxxxxxxxxxxxxxxxxxxxxxxxxx /!
b0 0
b0 0!
b0 1
01!
b0 2
b0 2!
b0 3
b0 3!
b11 4
b11111110 4!
b0 5
b0 5!
b1 6
b11111111 6!
07
b0 8
b0 9
b0 :
bx ;
b10110011 <
b0 =
b0 >
b0 ?
bx @
0A
0B
b0 C
b0 D
0E
1F
b0 G
0H
0I
b0 J
0K
b0 L
b0 M
b0 N
b1 O
b0 P
b0 Q
b0 R
b0 S
b11 T
b0 U
b1 V
b0 W
0X
b0 Y
b0 Z
b0 [
bx \
b0 ]
0^
b0xxxxxxxxxxxxxxxxxxxxxxxxxxxxxxxx _
b0 `
b1 a
b10110011 b
b0 c
b10101011110011011110111100010010 d
b10000111011001010100001100100001 e
b11111110110111001011101010011000 f
b0 g
b0 h
b0 i
b0 j
b110011 k
b0 l
b0 m
1n
1o
1p
0q
0r
0s
0t
0u
0v
0w
0x
0y
0z
0{
0|
0}
b0 ~
$end
#5000
1!
1A
#10000
0!
1"
0A
1B
#15000
1!
b11000000 %
b1 &
b1 0!
b0xxxxxxxxxxxxxxxxxxxxxxxxxxxxxxxx 2!
b0xxxx 5!
b11000000 6!
1A
b1 D
b1 W
#20000
0!
0A
#25000
1!
b1 !!
b100001000 $!
b11111111 %
b100010000000000 %!
b10 &
b1 &!
1'
b1 *
b0 *!
b1 +!
b1 ,!
b1 -
1.
b1 0
b10 0!
b1 1
b1 5
b0 6
b11111111 6!
b1 8
b100001000000010010011 <
b1 =
1A
b10 D
1E
b1 G
b1 J
1K
b1 M
b1 N
b1 S
b1 U
b0 V
b10 W
b1 Y
b10000 ]
b100001000000010010011 b
b1 c
b1 g
b10011 k
b0 l
b0 m
0n
0o
0p
1x
1y
b1 ~
#30000
0!
0A
#35000
1!
b11 &
b11 0!
1A
b11 D
b11 W
#40000
0!
0A
#45000
1!
b100 &
0'
b100 0!
1A
b100 D
0E
b100 W
#50000
0!
0A
#55000
1!
b101 &
b101 0!
1A
b101 D
b101 W
#60000
0!
0A
#65000
1!
b0 !!
b10 "!
b1 #!
b0 $!
b0 %!
b110 &
b0 &!
1'
b10 )
b0 *
b1 *!
b0 +!
b0 ,!
b0 -
0.
b0 0
b110 0!
b0 1
b0 5
b1 6
b0 8
b100110011 <
b10 =
1A
b110 D
1E
b0 G
b0 J
0K
b0 M
b0 N
b10 O
b0 S
b0 U
b1 V
b110 W
b0 Y
b0 ]
b100110011 b
b10 c
b0 g
b110011 k
b0 l
b0 m
1n
1o
1p
0x
0y
b0 ~
#70000
0!
0A
#75000
1!
b111 &
b111 0!
1A
b111 D
b111 W
#80000
0!
0A
#85000
1!
b1000 &
0'
b1000 0!
1A
b1000 D
0E
b1000 W
#90000
0!
0A
#95000
1!
b1001 &
b1001 0!
1A
b1001 D
b1001 W
#100000
0!
0A
#105000
1!
b10 !!
b1000010000 $!
b1000000000000001 %!
b1010 &
b10 &!
1'
b10 *
b0 *!
b10 +!
b10 ,!
b10 -
1.
b10 0
b1010 0!
b10 1
b10 5
b0 6
b10 8
b1000010000000100010011 <
b11 =
1A
b1010 D
1E
b10 G
b10 J
1K
b10 M
b10 N
b10 S
b10 U
b0 V
b1010 W
b10 Y
b10000 ]
b1000010000000100010011 b
b11 c
b10 g
b10011 k
b0 l
b0 m
0n
0o
0p
1x
1y
b10 ~
#110000
0!
0A
#115000
1!
b1011 &
b1011 0!
1A
b1011 D
b1011 W
#120000
0!
0A
#125000
1!
b1100 &
0'
b1100 0!
1A
b1100 D
0E
b1100 W
#130000
0!
0A
#135000
1!
b1101 &
b1101 0!
1A
b1101 D
b1101 W
#140000
0!
0A
#145000
1!
b0 !!
b11 "!
b10000000001 #!
b0 $!
b0 %!
b1110 &
b0 &!
1'
b11 )
b0 *
b1 *!
b0 +!
b0 ,!
b0 -
0.
b0 0
b1110 0!
b0 1
b0 5
b1 6
b0 8
b110110011 <
b100 =
1A
b1110 D
1E
b0 G
b0 J
0K
b0 M
b0 N
b11 O
b0 S
b0 U
b1 V
b1110 W
b0 Y
b0 ]
b110110011 b
b100 c
b0 g
b110011 k
b0 l
b0 m
1n
1o
1p
0x
0y
b0 ~
#150000
0!
0A
#155000
1!
b1111 &
b1111 0!
1A
b1111 D
b1111 W
#160000
0!
0A
#165000
1!
b10000 &
0'
b10000 0!
1A
b10000 D
0E
b10000 W
#170000
0!
0A
#175000
1!
b10001 &
b10001 0!
1A
b10001 D
b10001 W
#180000
0!
0A
#185000
1!
b11 !!
b1100011000 $!
b1100010000000001 %!
b10010 &
b11 &!
1'
b11 *
b0 *!
b11 +!
b11 ,!
b11 -
1.
b11 0
b10010 0!
b11 1
b11 5
b0 6
b11 8
b1100011000000110010011 <
b101 =
1A
b10010 D
1E
b11 G
b11 J
1K
b11 M
b11 N
b11 S
b11 U
b0 V
b10010 W
b11 Y
b10000 ]
b1100011000000110010011 b
b101 c
b11 g
b10011 k
b0 l
b0 m
0n
0o
0p
1x
1y
b11 ~
#190000
0!
0A
#195000
1!
b10011 &
b10011 0!
1A
b10011 D
b10011 W
#200000
0!
0A
#205000
1!
b10100 &
0'
b10100 0!
1A
b10100 D
0E
b10100 W
#210000
0!
0A
#215000
1!
b10101 &
b10101 0!
1A
b10101 D
b10101 W
#220000
0!
0A
#225000
1!
b1 !!
b1 "!
b10000000000 #!
b100000010 $!
b1010000000000 %!
b10110 &
b1 &!
1'
0(
b1 (!
b1 )
b1 *
b1 +!
b1 ,!
b1 -
b0 0
b10110 0!
b1 1
b1 3
b1 5
17
b1 8
b1 9
b100000010000010100011 <
b110 =
b1 ?
1A
b10110 D
1E
0F
b1 G
b1 J
b0 M
b1 N
b1 O
b1 Q
b1 S
b1 U
b10110 W
1X
b1 Y
b1 Z
b1000 ]
b100000010000010100011 b
b110 c
b1 g
b100011 k
b0 l
b10 m
0x
0y
1z
1{
b1 ~
#230000
0!
0A
#235000
1!
b10111 &
b10111 0!
1A
b10111 D
b10111 W
#240000
0!
0A
#245000
1!
b11000 &
0'
b11000 0!
1A
b11000 D
0E
b11000 W
#250000
0!
0A
#255000
1!
b11001 &
b11001 0!
1A
b11001 D
b11001 W
#260000
0!
0A
#265000
1!
b10 !!
b10 "!
b1 #!
b1000000010 $!
b1000000000001 %!
b11010 &
b10 &!
1'
b10 (!
b10 )
b10 *
b10 +!
b10 ,!
b10 -
bx000000000000000000000000 -!
b11010 0!
b10 1
b10 3
b10 5
b10 8
b10 9
bx000000000000000000000000 ;
b1000000010000100100011 <
b111 =
b10 ?
bx000000000000000000000000 @
1A
b11010 D
1E
b10 G
b10 J
b10 N
b10 O
b10 Q
b10 S
b10 U
b11010 W
b10 Y
b10 Z
bx000000000000000000000000 \
b1000000010000100100011 b
b111 c
b10 g
b100011 k
b0 l
b10 m
b10 ~
#270000
0!
0A
#275000
1!
b11011 &
b11011 0!
1A
b11011 D
b11011 W
#280000
0!
0A
#285000
1!
b11100 &
0'
b11100 0!
1A
b11100 D
0E
b11100 W
#290000
0!
0A
#295000
1!
b11101 &
b11101 0!
1A
b11101 D
b11101 W
#300000
0!
0A
#305000
1!
b11 !!
b11 "!
b10000000001 #!
b1100000010 $!
b1010000000001 %!
b11110 &
b11 &!
1'
b11 (!
b11 )
b11 *
b11 +!
b11 ,!
b11 -
bx000000000000000000000000 -!
b11110 0!
b11 1
b11 3
b11 5
b11 8
b11 9
bx000000000000000000000000 ;
b1100000010000110100011 <
b1000 =
b11 ?
bx000000000000000000000000 @
1A
b11110 D
1E
b11 G
b11 J
b11 N
b11 O
b11 Q
b11 S
b11 U
b11110 W
b11 Y
b11 Z
bx000000000000000000000000 \
b1100000010000110100011 b
b1000 c
b11 g
b100011 k
b0 l
b10 m
b11 ~
#310000
0!
0A
#315000
1!
b11111 &
b11111 0!
1A
b11111 D
b11111 W
#320000
0!
0A
#325000
1!
b100000 &
0'
b100000 0!
1A
b100000 D
0E
b100000 W
#330000
0!
0A
#335000
1!
b100001 &
b100001 0!
1A
b100001 D
b100001 W
#340000
0!
0A
#345000
1!
b1 !!
b100 "!
b10 #!
b100000010 $!
b1010000000000 %!
b100010 &
b1 &!
1'
1(
b1 (!
b100 )
b110000001000000001 *
b1 +!
b1 ,!
b1 -
b110000001000000001 -!
b1 /
b100010 0!
b1 1
b1 3
b1 5
07
b1 8
b1 9
b110000001000000001 ;
b100000010001000000011 <
b1001 =
b1 ?
b110000001000000001 @
1A
b100010 D
1E
1F
b110000001000000001 G
b1 J
b1 L
b1 N
b100 O
b1 Q
b1 S
b1 U
b100010 W
0X
b1 Y
b1 Z
b110000001000000001 \
b10000 ]
b100000010001000000011 b
b1001 c
b110000001000000001 g
b11 k
b0 l
b10 m
1r
1u
0z
0{
b1 ~
#350000
0!
0A
#355000
1!
b100011 &
b100011 0!
1A
b100011 D
b100011 W
#360000
0!
0A
#365000
1!
b100100 &
0'
b100100 0!
1A
b100100 D
0E
b100100 W
#370000
0!
0A
#375000
1!
b100101 &
b100101 0!
1A
b100101 D
b100101 W
#380000
0!
0A
#385000
1!
b10 !!
b101 "!
b10000000010 #!
b1000000010 $!
b1000000000001 %!
b100110 &
b10 &!
1'
b10 (!
b101 )
b1100000010 *
b10 +!
b10 ,!
b10 -
b1100000010 -!
b100110 0!
b10 1
b10 3
b10 5
b10 8
b10 9
b1100000010 ;
b1000000010001010000011 <
b1010 =
b10 ?
b1100000010 @
1A
b100110 D
1E
b1100000010 G
b10 J
b10 N
b101 O
b10 Q
b10 S
b10 U
b100110 W
b10 Y
b10 Z
b1100000010 \
b1000000010001010000011 b
b1010 c
b1100000010 g
b11 k
b0 l
b10 m
b10 ~
#390000
0!
0A
#395000
1!
b100111 &
b100111 0!
1A
b100111 D
b100111 W
#400000
0!
0A
#405000
1!
b101000 &
0'
b101000 0!
1A
b101000 D
0E
b101000 W
#410000
0!
0A
#415000
1!
b101001 &
b101001 0!
1A
b101001 D
b101001 W
#420000
0!
0A
#425000
1!
b11 !!
b110 "!
b11 #!
b1100000010 $!
b1010000000001 %!
b101010 &
b11 &!
1'
b11 (!
b110 )
b11 *
b11 +!
b11 ,!
b11 -
b11 -!
b101010 0!
b11 1
b11 3
b11 5
b11 8
b11 9
b11 ;
b1100000010001100000011 <
b1011 =
b11 ?
b11 @
1A
b101010 D
1E
b11 G
b11 J
b11 N
b110 O
b11 Q
b11 S
b11 U
b101010 W
b11 Y
b11 Z
b11 \
b1100000010001100000011 b
b1011 c
b11 g
b11 k
b0 l
b10 m
b11 ~
#430000
0!
0A
#435000
1!
b101011 &
b101011 0!
1A
b101011 D
b101011 W
#440000
0!
0A
#445000
1!
b101100 &
0'
b101100 0!
1A
b101100 D
0E
b101100 W
#450000
0!
0A
#455000
1!
b101101 &
b101101 0!
1A
b101101 D
b101101 W
#460000
0!
0A
#465000
1!
bx !!
bx "!
bx #!
bx $!
bx %!
b101110 &
b0 &!
1'
bx '!
x(
bx (!
bx )
b0 -
x.
b0x /
bx 0
b101110 0!
bx 1
bx 2
bx 3
b0xx 4
x7
bx 9
bx :
bx <
b1100 =
bx >
bx ?
1A
b101110 D
1E
xF
b0 J
xK
b0x L
bx M
bx N
bx O
bx P
bx Q
bx R
bx S
b0xx T
b101110 W
xX
bx Z
bx [
b0xx000 ]
bx b
b1100 c
bx k
bx l
bx m
xo
xp
xq
xr
xs
xt
xu
xv
xw
xx
xy
xz
x{
x|
x}
bx ~
#470000
0!
0A
#475000
1!
b101111 &
b101111 0!
1A
b101111 D
b101111 W
#480000
0!
0A
#485000
1!
b110000 &
0'
b110000 0!
1A
b110000 D
0E
b110000 W
#490000
0!
0A
#495000
1!
b110001 &
b110001 0!
1A
b110001 D
b110001 W
#500000
0!
0A
#505000
1!
b110010 &
1'
b110010 0!
b1101 =
1A
b110010 D
1E
b110010 W
b1101 c
#510000
0!
0A
#515000
1!
b110011 &
b110011 0!
1A
b110011 D
b110011 W
#520000
0!
0A
#525000
1!
b110100 &
0'
b110100 0!
1A
b110100 D
0E
b110100 W
#530000
0!
0A
#535000
1!
b110101 &
b110101 0!
1A
b110101 D
b110101 W
#540000
0!
0A
#545000
1!
b110110 &
1'
b110110 0!
b1110 =
1A
b110110 D
1E
b110110 W
b1110 c
#550000
0!
0A
#555000
1!
b110111 &
b110111 0!
1A
b110111 D
b110111 W
#560000
0!
0A
#565000
1!
b111000 &
0'
b111000 0!
1A
b111000 D
0E
b111000 W
#570000
0!
0A
#575000
1!
b111001 &
b111001 0!
1A
b111001 D
b111001 W
#580000
0!
0A
#585000
1!
b111010 &
1'
b111010 0!
b1111 =
1A
b111010 D
1E
b111010 W
b1111 c
#590000
0!
0A
#595000
1!
b111011 &
b111011 0!
1A
b111011 D
b111011 W
#600000
0!
0A
#605000
1!
b111100 &
0'
b111100 0!
1A
b111100 D
0E
b111100 W
#610000
0!
0A
#615000
1!
b111101 &
b111101 0!
1A
b111101 D
b111101 W
#620000
0!
0A
#625000
1!
b111110 &
1'
b111110 0!
b10000 =
1A
b111110 D
1E
b111110 W
b10000 c
#630000
0!
0A
#635000
1!
b111111 &
b111111 0!
1A
b111111 D
b111111 W
#640000
0!
0A
#645000
1!
b1000000 &
0'
b1000000 0!
1A
b1000000 D
0E
b1000000 W
#650000
0!
0A
#655000
1!
b1000001 &
b1000001 0!
1A
b1000001 D
b1000001 W
#660000
0!
0A
#665000
1!
b1000010 &
1'
b1000010 0!
b10001 =
1A
b1000010 D
1E
b1000010 W
b10001 c
#670000
0!
0A
#675000
1!
b1000011 &
b1000011 0!
1A
b1000011 D
b1000011 W
#680000
0!
0A
#685000
1!
b1000100 &
0'
b1000100 0!
1A
b1000100 D
0E
b1000100 W
#690000
0!
0A
#695000
1!
b1000101 &
b1000101 0!
1A
b1000101 D
b1000101 W
#700000
0!
0A
#705000
1!
b1000110 &
1'
b1000110 0!
b10010 =
1A
b1000110 D
1E
b1000110 W
b10010 c
#710000
0!
0A
#715000
1!
b1000111 &
b1000111 0!
1A
b1000111 D
b1000111 W
#720000
0!
0A
#725000
1!
b1001000 &
0'
b1001000 0!
1A
b1001000 D
0E
b1001000 W
#730000
0!
0A
#735000
1!
b1001001 &
b1001001 0!
1A
b1001001 D
b1001001 W
#740000
0!
0A
#745000
1!
b1001010 &
1'
b1001010 0!
b10011 =
1A
b1001010 D
1E
b1001010 W
b10011 c
#750000
0!
0A
#755000
1!
b1001011 &
b1001011 0!
1A
b1001011 D
b1001011 W
#760000
0!
0A
#765000
1!
b1001100 &
0'
b1001100 0!
1A
b1001100 D
0E
b1001100 W
#770000
0!
0A
#775000
1!
b1001101 &
b1001101 0!
1A
b1001101 D
b1001101 W
#780000
0!
0A
#785000
1!
b1001110 &
1'
b1001110 0!
b10100 =
1A
b1001110 D
1E
b1001110 W
b10100 c
#790000
0!
0A
#795000
1!
b1001111 &
b1001111 0!
1A
b1001111 D
b1001111 W
#800000
0!
0A
#805000
1!
b1010000 &
0'
b1010000 0!
1A
b1010000 D
0E
b1010000 W
#810000
0!
0A
#815000
1!
b1010001 &
b1010001 0!
1A
b1010001 D
b1010001 W
#820000
0!
0A
#825000
1!
b1010010 &
1'
b1010010 0!
b10101 =
1A
b1010010 D
1E
b1010010 W
b10101 c
#830000
0!
0A
#835000
1!
b1010011 &
b1010011 0!
1A
b1010011 D
b1010011 W
#840000
0!
0A
#845000
1!
b1010100 &
0'
b1010100 0!
1A
b1010100 D
0E
b1010100 W
#850000
0!
0A
#855000
1!
b1010101 &
b1010101 0!
1A
b1010101 D
b1010101 W
#860000
0!
0A
#865000
1!
b1010110 &
1'
b1010110 0!
b10110 =
1A
b1010110 D
1E
b1010110 W
b10110 c
#870000
0!
0A
#875000
1!
b1010111 &
b1010111 0!
1A
b1010111 D
b1010111 W
#880000
0!
0A
#885000
1!
b1011000 &
0'
b1011000 0!
1A
b1011000 D
0E
b1011000 W
#890000
0!
0A
#895000
1!
b1011001 &
b1011001 0!
1A
b1011001 D
b1011001 W
#900000
0!
0A
#905000
1!
b1011010 &
1'
b1011010 0!
b10111 =
1A
b1011010 D
1E
b1011010 W
b10111 c
#910000
0!
0A
#915000
1!
b1011011 &
b1011011 0!
1A
b1011011 D
b1011011 W
#920000
0!
0A
#925000
1!
b1011100 &
0'
b1011100 0!
1A
b1011100 D
0E
b1011100 W
#930000
0!
0A
#935000
1!
b1011101 &
b1011101 0!
1A
b1011101 D
b1011101 W
#940000
0!
0A
#945000
1!
b1011110 &
1'
b1011110 0!
b11000 =
1A
b1011110 D
1E
b1011110 W
b11000 c
#950000
0!
0A
#955000
1!
b1011111 &
b1011111 0!
1A
b1011111 D
b1011111 W
#960000
0!
0A
#965000
1!
b1100000 &
0'
b1100000 0!
1A
b1100000 D
0E
b1100000 W
#970000
0!
0A
#975000
1!
b1100001 &
b1100001 0!
1A
b1100001 D
b1100001 W
#980000
0!
0A
#985000
1!
b1100010 &
1'
b1100010 0!
b11001 =
1A
b1100010 D
1E
b1100010 W
b11001 c
#990000
0!
0A
#995000
1!
b1100011 &
b1100011 0!
1A
b1100011 D
b1100011 W
